{
    "West day 7-4": 2.32,

    "West day 7-5": 2.32,

    "West day 9-4": 2.32,

    "East day 7-5": 2.14,

    "East day 9-4": 2.14,

    "Hub day 9-5": 1.97,

    "Hub day 10-6": 1.97,

    "ST day 12-8": 2.20,

    "ST eve 8-2": 2.20,

    "West eve 3-12": 2.74,

    "East eve 4-12": 2.41,

    "Hub eve 5-1": 2.23,

    "Hub eve 6-2": 2.23,

    "Surge 8-2": 2.2,

    "Surge 2-10": 2.2,

    "Surge 6-12": 2.2,

    "Surge 8-4": 2.2,

    "Surge 4-10": 2.2,

    "Surge 10-4": 2.2,

    "Surge 10-6": 2.2,

    "West eve 4-12": 2.74,

    "West night": 2.06,

    "X night 8-4": 2.2,

    "X night 9-3": 2.2,

    "X night 9-5": 2.2,

    "EW 10-5 float": 2.2
}